fourbitadder.vcd
$date
	Tue Sep 25 17:04:16 2018
$end
$version
	Icarus Verilog
$end
$timescale
	1ps
$end
$scope module behavioralFullAdder $end
$var wire 1 ! a $end
$var wire 1 " b $end
$var wire 1 # carryin $end
$var wire 1 $ sum $end
$var wire 1 % carryout $end
$upscope $end
$scope module testFourBit $end
$var wire 4 & sum [3:0] $end
$var wire 1 ' overflow $end
$var wire 1 ( carryout $end
$var reg 4 ) a [3:0] $end
$var reg 4 * b [3:0] $end
$var reg 1 + carryin $end
$scope module adder $end
$var wire 4 , a [3:0] $end
$var wire 4 - b [3:0] $end
$var wire 1 + carryin $end
$var wire 1 ' overflow $end
$var wire 4 . sum [3:0] $end
$var wire 1 ( carryout $end
$var wire 1 / c2 $end
$var wire 1 0 c1 $end
$var wire 1 1 c0 $end
$scope module add0 $end
$var wire 1 2 a $end
$var wire 1 3 b $end
$var wire 1 + carryin $end
$var wire 1 1 carryout $end
$var wire 1 4 out1 $end
$var wire 1 5 out2 $end
$var wire 1 6 out3 $end
$var wire 1 7 sum $end
$upscope $end
$scope module add1 $end
$var wire 1 8 a $end
$var wire 1 9 b $end
$var wire 1 1 carryin $end
$var wire 1 0 carryout $end
$var wire 1 : out1 $end
$var wire 1 ; out2 $end
$var wire 1 < out3 $end
$var wire 1 = sum $end
$upscope $end
$scope module add2 $end
$var wire 1 > a $end
$var wire 1 ? b $end
$var wire 1 0 carryin $end
$var wire 1 / carryout $end
$var wire 1 @ out1 $end
$var wire 1 A out2 $end
$var wire 1 B out3 $end
$var wire 1 C sum $end
$upscope $end
$scope module add3 $end
$var wire 1 D a $end
$var wire 1 E b $end
$var wire 1 / carryin $end
$var wire 1 ( carryout $end
$var wire 1 F out1 $end
$var wire 1 G out2 $end
$var wire 1 H out3 $end
$var wire 1 I sum $end
$upscope $end
$upscope $end
$upscope $end
$enddefinitions $end
#0
$dumpvars
xI
xH
xG
xF
0E
0D
xC
xB
xA
x@
0?
0>
x=
x<
x;
x:
09
08
x7
x6
x5
x4
03
02
x1
x0
x/
bx .
b0 -
b0 ,
0+
b0 *
b0 )
x(
x'
bx &
x%
x$
z#
z"
z!
$end
#50000
04
06
0:
0<
0@
0B
0F
0H
05
#100000
bx0 &
bx0 .
07
0;
0A
0G
01
#150000
00
0/
0(
bx00 &
bx00 .
0=
#200000
0C
b0 &
b0 .
0I
0'
#1000000
13
19
1?
1E
12
18
1>
1D
b1111 *
b1111 -
b1111 )
b1111 ,
#1050000
16
1<
1B
1H
#1100000
11
10
1/
1(
#1150000
1=
1C
b1110 &
b1110 .
1I
#2000000
03
09
0?
0E
b0 *
b0 -
#2050000
14
06
1:
0<
1@
0B
1F
0H
#2100000
17
01
0=
1;
00
0C
1A
0/
b1 &
b1 .
0I
1G
0(
#2150000
1=
0;
10
1C
0A
1/
b1111 &
b1111 .
1I
0G
1(
#2200000
00
0C
1A
0/
b11 &
b11 .
0I
1G
0(
#2250000
1C
0A
1/
b1111 &
b1111 .
1I
0G
1(
#2300000
0/
b111 &
b111 .
0I
1G
0(
#2350000
b1111 &
b1111 .
1I
0G
1(
#2400000
0(
1'
#2450000
0'
#3000000
13
19
1?
1E
02
08
0>
0D
b1111 *
b1111 -
b0 )
b0 ,
#4000000
09
0?
0E
12
18
1>
1D
b1 *
b1 -
b1111 )
b1111 ,
#4050000
04
16
#4100000
b1110 &
b1110 .
07
11
#4150000
b1100 &
b1100 .
0=
1;
#4200000
10
#4250000
b1000 &
b1000 .
0C
1A
#4300000
1/
#4350000
b0 &
b0 .
0I
1G
1'
#4400000
1(
#4450000
0'
#5000000
03
19
b10 *
b10 -
#5050000
14
06
0:
1<
#5100000
17
01
b11 &
b11 .
1=
0;
#5150000
b1 &
b1 .
0=
#6000000
09
1?
b100 *
b100 -
#6050000
1:
0<
0@
1B
#6100000
1=
00
b111 &
b111 .
1C
0A
#6150000
b11 &
b11 .
0C
#7000000
0?
1E
b1000 *
b1000 -
#7050000
1@
0B
0F
1H
#7100000
1C
0/
b1111 &
b1111 .
1I
0G
#7150000
b111 &
b111 .
0I
1'
#8000000
13
0E
02
08
0>
b1 *
b1 -
b1000 )
b1000 ,
#8050000
1F
0H
0:
0@
#8100000
1I
0(
0=
b1001 &
b1001 .
0C
#8150000
0'
#9000000
19
1?
b111 *
b111 -
#9050000
1:
1@
#9100000
1=
b1111 &
b1111 .
1C
